Helper file showing all available BiomeDictionary biome tags.

[
  "SNOWY",
  "BEACH",
  "SUPER_BIRCH_TREES",
  "SAVANNA",
  "MESA",
  "RARE",
  "SPOOKY",
  "WET",
  "SPARSE",
  "MOUNTAIN",
  "MEGA_TAIGA_TREES",
  "THEMED_TREES",
  "DRY",
  "RIVER",
  "MAGICAL",
  "TWILIGHT",
  "NETHER",
  "WATER",
  "DENSE",
  "BIRCH_TREES",
  "JUNGLE",
  "SANDY",
  "OCEAN",
  "SKY_DEADLY",
  "HILLS",
  "MEGA_TAIGA_SPRUCE_TREES",
  "HOT",
  "FOREST",
  "MUSHROOM",
  "PLAINS",
  "END",
  "SWAMP",
  "COLD",
  "DEAD",
  "VOID",
  "ROOFED_TREES",
  "LUSH",
  "CONIFEROUS",
  "WASTELAND"
]